﻿Comment,Auther,Title,Totalread,Date,Article
,百战金刚,关注低价！关注600512！！ ,,,"
				关注低价！关注600512！！ 
				"
,董总1688,我做配资的，那不是很惨？[哭][哭][哭]要转型了 ,,,"
				我做配资的，那不是很惨？,要转型了 
				"
,jkppa,死拉硬拽的拉国有银行，掩护小盘出货，明眼人都看得出来，小心别上当！ ,,,"
				死拉硬拽的拉国有银行，掩护小盘出货，明眼人都看得出来，小心别上当！ 
				"
,,机构，脓死你。有本事突破半年线呀 ,,,"
				11 
				"
,赵冉LVN717,下午操作点位和方向 ,,,"
				1、上午大盘继续上行，金融地产强势有延续性，而中小创也止跌反弹，略有八二转换但总体二八共进，个人认为，今明两天打新资金将陆陆续续回笼，建议短线多头为宜。, 2、技术上，沪指MACD绿柱继续缩短，继续总体零轴范畴待抉择，在不确认多空前提下先立足持股；15-30分钟沪指初步超买背离，而中小创则是初步底背离，预计午后继续上行，有一定八二轮替，短线关注超跌的中小创品种。, 3、下午点位，上档3585点，下档3530点，中枢线仍旧3620点；三维差异性资金+195亿较多，暂运行多头周期。策略：基本仓持为主、短线高抛低吸，继续立足低价科技、新能源、煤炭、有色、建材、二线地产、非银金融、基础化工、虚拟现实、生物环保等。【仅供参考】 
				"
,,卖了，空了，因为空间上涨太小了 ,,,"
				卖了，空了，因为空间上涨太小了 
				"
,叠峰飞鹏,谨慎 ,,,"
				谨慎 
				"
,傻子一支,看盘都累的不行，何况操盘的！ ,,,"
				看盘都累的不行，何况操盘的！ 
				"
,快进快出vv财哥,大盘要准备突破了  太牛了  这次我信了  牛市2.0到来了 ,,,"
				, 
				"
,童话天尊,多头部队集结待命 ,,,"
				今日盘面格局依然是权重侧面维稳，热点题材、概念继续疯狂。,短期来看，目前上证依然处于横盘箱体之中正常波动，自昨日小幅度下探辅助线后，今日出现金叉反弹，但是上方3660高点压制平台，在整体持续缩量、资金持续翻绿的情况下，依然要注意短期内遇到后可能出现的调整。,方向上：上证每次进入新的横盘通道后总会先在此通道内震荡盘整以确定底部支撑和吸取筹码，但是横久必跌，因此上证目前只能向着更高的平台冲击，不然前期券商的努力不就白费了吗，但是这波拉升由谁来完成呢？,市场热点还比较杂乱，轮换速度快，但是每日都能出现新的热点带动市场发展，让投资看到希望，因此目前暂且先看作正常波动，在上证没有出跌出箱体之前，耐心等待权重再次拉升。,再看股价，目前股价也保持了典型的上升趋势，但是上方也即将遇到22.5的高点平台压制，面对此压制平台，若成交量不能持续放大，不能达到前期高点时的水平，那么短期内还是要看调整的。,从多数题材行业指数来看，均遇到前期的高点压制平台，是否能突破以股价能否突破前期高点平台为准。,机会上：目前比较杂乱，虽然昔日的热点在近期还是有不错的表现，但是每日更换拉升的热点却让我们对昔日热点慢慢遗忘，回过头，发现其实它也还是一直在涨，如送转潜力、次新股、高校背景、充电桩、工业4.0、电子支付等。,如果只看短期，那么就从近期轮动热点中找规律，从板块来看，电子器件、电子信息、汽车制造、地产、传媒娱乐、机械、有色还是值得关注的。,概念上：互联金融、互联网+、电子支付、全息概念可以作为短期的方向。,操作模式可以以涨停复制或者低位涨停加席位密码为准。稳健者找准大方向后，寻找其中近期波段明显的、趋势明朗的个股耐心持股。,操作上：明日大盘大概率会向上攻击，攻击时密切关注成交量的变化，能否快速放量突破阻力位3650—3680点附近，如果能放量突破，表示上行还有空间，突破有效；如果成交量不能放量突破，可能还会回落震荡整理。操作就相对比较简单了，放量上攻以持股为主，缩量上攻可以适当逢高减仓。把握好下跌个股的低吸节奏，但整体还是建议控制仓位，不追涨，不盲目杀跌。,声明：文中涉及个股仅作交流与参考，不作为投资依据。 ,
				"
,烟台莱山,明天大盘几个关键点位 ,,,"
				明天关键看.支3512..支3525..压3561.压3567..生3493..死3483,个人观点.仅供参考 
				"
,神剑SUN,三大指数分析本周大盘股及小盘股的风险与机会 ,,,"
				今天盘中带大家早盘10：30前减仓，下午追击大盘股还算满意，大盘预计的压力高度一点不差，大盘收盘回落不到两个点，可就是这一个多点埋下还不能全面看多做多的理由之一，建议目前择股半仓操作较佳，必须在周末后全面看多做多。目前，总体上三大指数周线没有任何问题，上周的大跌可以视作是周线级别的一次回踩，目前，深成指及上证都有效反弹了，唯独创业板暂时还是周阴线，细观指数，创业板由于涨幅远大于主板，周线 在技术上还有空间容许调整多一周阴线，只要周五不破2522收盘，也将调整结束。变数：还是上证，今天差一个点就是差一个点突破压力，技术是死东西必须有界限不能视作误差，目前此形态视作没突破的话，如果明天收阴线破3520就是空头形态，,指数今天突破压力也需要突破确认一天有效性。也不差一天两天了，半仓操作中大盘的股，到周末创业板不创新低收盘再全面看多做多吧，当然，如果明天上证收阳线，且创业板突破2728就可以提前全面做多了。明天如果上证破3520收盘，技术上还是需要回避到周末以防大变盘可能。即使破位，彻底向下变盘机会不大，但技术上还是要回避为佳，执行纪律。 
				"
,娜锐,到2:30又开始玩跳水比赛了。 ,,,"
				到2:30又开始玩跳水比赛了。 
				"
,铁打的汉子,打新的娃儿们明天腚眼一看盘，毕咧！蛋都㧓扯了，球用不起。蛋痛都没办沄咧！ ,,,"
				打新的娃儿们明天腚眼一看盘，毕咧！蛋都㧓扯了，球用不起。蛋痛都没办沄咧！ 
				"
,n53311317380601,那些一年股价都没表现的股票大胆抢 ,,,"
				那些一年股价都没表现的股票大胆抢 
				"
,魏一笑,2015-12-3大盘走势预测 ,,,"
				今日在我的预期中上证果然收出中阳，券商股总是会危难之下显身手，大金融概念力换狂澜，周一的单针探底基本成立，本周收大阳的 概率极大，明日又是传说中黑色星期四，哈哈，本周之后是不可能再有黑色日子，继续看好周四的大盘走势，估计上证手个红星星的概率很到，3600就在眼前，大盘股继续充当搭台的角色，小盘股经过这几日的大幅杀跌迎来了短线机会，注意开始买入跌幅达到20%以上的小盘股时机到了，嚯嚯嚯，嚯嚯嚯，嚯嚯嚯嚯，向上攻 
				"
,富层雨,不受经济下滑影响，三季度电子支付保持较快增长！！ ,,,"
				央行：第三季度电子支付业务保持较快增长,2015年12月03日11:28    来源：证券日报    手机看新闻,原标题：央行：第三季度电子支付业务保持较快增长,　　中国央行发布的2015年第三季度支付业务统计数据显示，第三季度全国共办理非现金支付业务245.93亿笔，金额达到859.74万亿元，环比分别增长6.90%和0.82%。社会资金交易规模持续扩大，全国支付体系运行平稳，支付结算业务量稳步增长。其中，电子支付业务保持较快增长，电话支付、移动支付业务涨幅明显。（左永刚） 
				"
,,又要跳水了操你妈的[哭][哭] ,,,"
				又要跳水了操你妈的, 
				"
,时事财经评论,卖出高价股 ,,,"
				买入5元以下低价股 卖出高价股,买入5元以下低价股 卖出高价股,买入5元以下低价股 卖出高价股,买入5元以下低价股 卖出高价股,买入5元以下低价股 卖出高价股,买入5元以下低价股 卖出高价股 
				"
,Lyxin,这指数已到目标位置，海亮，你让我等久了 ,,,"
				我差点就被口水淹没了。。咳咳。。谢谢支持我相信我的朋友，说完，最近这段时间我都不在了，大概下周五回归，大盘压力位也到，如果站上3560超过45分钟，就是看多，否则依然按照反抽处理，明天减仓，但是海亮不减，他不跟大盘的。其他票最好减一下。 
				"
,铁打的汉子,打新的娃儿们明天一看傻眼腚咧！ ,,,"
				打新的娃儿们明天一看傻眼腚咧！ 
				"
,,必须拉指数！否则没人进，吃定主力老儿！散户打新资金没进来前大盘都是安全的！满仓等 ,,,"
				必须拉指数！否则没人进，吃定主力老儿！散户打新资金没进来前大盘都是安全的！满仓等明天最后一天拉高！今天不会跌！必须拉指数！ 
				"
,neace9302,反正不上车就不会有危险 坐等跳水 ,,,"
				反正不上车就不会有危险 坐等跳水 
				"
,小雨s43z8s,： ,,,"
				： 
				"
,天意谷,6oo652游久游戏短线可准备 ,,,"
				6oo652,短线可准备 
				"
,笑而不语66,量不够，大家逃命吧 ,,,"
				没量，还想涨？骗散户接盘的。 
				"
,古东昇,2015-12-3大盘意欲修复向上，强拉指数，主题个股反弹自救 既然突破昨日关键 ,,,"
				2015-12-3大盘意欲修复向上，强拉指数，主题个股反弹自救,既然突破昨日关键位，站稳3509必须修复回3560继续看多走势，以3542为支撑，走顶部3573-3583回落，3560以上站稳收红为行情。,现在关注是涨是肯定的，主力也不愿意突破不了3550技术点而继续下行回去，所以强拉大盘股指数做势，但是能否站稳并突破3583为今日重点主题，毕竟连红三天，银行股周三拉升指数，今周个股普遍不涨，前期强势概念股补跌，造成他们所说的二八行情，而我感觉这反而是主力主动出资拉升修复指数，带动看多普涨手法。明日这波行情留意观测是否有意突破3583的态势，对于带动个股主力看涨引资，吸引股民跟风潮。就可以明朗大盘继续发展。反之如果再砸盘必更多套牢盘和观望情绪，所以非常关键。指数安全评级6。 
				"
,一卷冰雪玉辞心,法律明文规定禁止赌博和投机交易，但是神创能涨十倍我为什么不赌一把，我拿青春赌明天 ,,,"
				法律明文规定禁止赌博和投机交易，但是神创能涨十倍我为什么不赌一把，我拿青春赌明天 
				"
,,今天上午全体股民都将原来持有的中小盘股票清仓抛出换股大量吃进大盘股。 ,,,"
				今天上午全体股民都将原来持有的中小盘股票清仓抛出换股大量吃进大盘股。 
				"
,井冈山根据地,12.3日早盘分析 ,,,"
				上午缩量涨20点是在银行，保险，房地产，劵商等权重走势较强情况下产生的，盘面显得滞重，小盘股也有点强弩之末味道，日线刚好反弹在10日线3557，上方20日线3585压力较大，越往上压力越大，一旦权重下午走弱就会造成大盘跳水，不得不防。另外大盘从大阴线算起已经反弹3天半，后续必须要求权重进一步发力把大盘拉升至3600平台才可说是多空打了个平手。如果在此反弹过程中，权重不能发力，则大盘再往上本人认为较难，不排除跳水。,而创业板别看上午涨了43点，认为带有诱多成分。因为从周线看上午未能上5周线，除非下午能上去。从日线看30日线还,未站稳，尤其是60分钟指标称为吸住120周期线天花板，谨防从天花板坠落。为此操作上，放弃心贪，不要刻意去想多赚,一笔，搞不好鸡飞蛋打，多看少动为上。 
				"
,,金融股暴跌倒计时，快清仓 ,,,"
				金融股暴跌倒计时，快清仓 
				"
,时事财经评论,买入5元以下低价股买入 卖出高价股卖出 ,,,"
				买入5元以下低价股 卖出高价股,买入5元以下低价股 卖出高价股,买入5元以下低价股 卖出高价股,买入5元以下低价股 卖出高价股,买入5元以下低价股 卖出高价股,买入5元以下低价股 卖出高价股,买入5元以下低价股 卖出高价股 
				"
,马虎超过马大哈,骗子终归是骗子，又在无耻的拉升三胖子 ,,,"
				骗子终归是骗子，又在无耻的拉升三胖子 
				"
,破膛手,爱情动作片[俏皮][俏皮][大便] ,,,"
				爱情动作片, 
				"
,n648213788645186,拉指数，下周又要发新股了 ,,,"
				拉指数，下周又要发新股了，周一又是大阴线。 
				"
,快进快出vv财哥,唉呀妈呀  大盘回来了  你还不回来玩呀 那就错过啦 ,,,"
				, 
				"
,thfthfthf,上证指数明天下跌，创业板会继续走强 ,,,"
				上证指数明天下跌，创业板会继续走强 
				"
,一品方舟777,大胆买进002029七匹狼，一触即发； ,,,"
				大胆买进002029,。这轮大反攻；只有.,这个股票还在2300点的低位 
				"
,只赚5个点ok,纯空啦 手里的雇一个也不涨 ,,,"
				我类个去 
				"
,K歌的话,小散搭桥上涨，2点机构来砸？不知道是否猜对？ ,,,"
				小散搭桥上涨，2点机构来砸？不知道是否猜对？ 
				"
,股内,蓄势上冲3500！ ,,,"
				上周博客提示了本周低吸机会，中午博客再度提示了午后要敢于低吸，午后开盘指数震荡上攻，尾盘小幅回落，收盘上涨11点，个股普涨，两市60家涨停，而52家跌停全部是高位个股，市场存在分化，个股却在轮动！从这两天盘面来看，行情将会再次蓄势上冲，因为这两天新股申购资金面吃紧的情况下反而上涨，说明市场做多热情高涨，而且多头敢在这个时候拉起，说明目标不仅仅是前期的3678，政策方面为了发行更多的新股也会利多股市，后市行情IPO发行将会正常化，也不要指望市场还会继续跌多少，急跌总比阴跌好！简而言之，蓄势上冲3500势在必行！操作上依然关注滞涨类个股，尤其是前期没有爆发的个股早晚会启动爆发，潜伏机会一定要把握！一切行情提前说，等待时间验证！明日只有一只新股上市周四周五资金解冻，不排除多头主力继续高歌猛进，咱们走一步看一步，稳健获利为主！,   个人方面：本人今日再度重仓介入个股，尾盘强势拉起，计划择机出局，每次行情回调都会启动新的热点比如这几天的石墨烯概念，而滞涨类个股永远不过时，非常安全，波段出击稳健操作是上策！该股我早盘在圈子公布了，不少朋友应该抄我底了，不过没关系，有赚就行，很多知道的朋友自己知道就行了不要到处散布，避免涉嫌市场操纵！后期我也会不定时在圈子公布，暂时不在公开推荐任何个股，尤其是实盘交割单！相信大多数朋友都知道我目前的状况，时间比较紧，比较少，暂时就啰嗦这么多，关键时刻在做提示！最后非常感谢长期支持本人的朋友，也预祝大家继续发财！ 
				"
,苏北网友,银行真他妈奇葩 ,,,"
				银行真他妈奇葩 
				"
,上海老梁,11月份的拐点已经形成 ,,,"
				十一月中旬本人开贴提到：“谨防 “11月中旬拐点”的形成，形成后就是周线级别的调整，我们都应当保持一份谨慎，毕竟现在是3650点附近，指数时间和空间进入了拐点地带，路口黄灯亮了起来，开车就要踩踩刹车，仓位重的朋友适当地减减仓位”,现在回头看，本人提前预判的“11月中旬的周线级别拐点”上周已经形成了，且在运行中……。,接下来，后面周线级别的拐点分别是：2016年元月、2016年5月、2016年11月。,以上未来一年中的三个拐点至少有两个拐点，本人现在就敢于提前确定将形成，交给时间验证吧！ 
				"
,n140713608533356,明日又到黑色星期五。 ,,,"
				明日又到黑色星期五。 
				"
,tyhz488,逼上3600！ ,,,"
				逼上3600！ 
				"
,獨行侠,"不经历风雨,怎能见彩虹 ",,,"
				对于近日的波动，出现了观点的碰撞，让时间来验证吧 
				"
,股海战旗,巧合啊 ,,,"
				在A股，明星公布恋情也是一大指标。比如2013年11月13日，吴奇隆刘诗诗、叶祖新蒋欣恋情曝光，刘恺威也宣布与杨幂的婚期。次日盘中A股见2078.99的最低点，三天怒涨上百点。昨天，娱乐圈明星又在集体晒甜蜜了，郭富城、熊黛林各自公开恋情，韩庚、林更新女友曝光，然后，大盘在当天就发力了！ 
				"
,新编改编现编,英雄不问出处，发财不在先后，股市在机会无处不在 ,,,"
				今年你没买股票，不能说你今后几年在买股票就不能大发财,今年你买了股票，也不能说你就发大财了,今年就做生意的也不一定就发财,过几年在做生意的也不一定就可以发大财,财运是不固定时间的，时势造英雄，虽然股市涨跌循环比其它生意快，但也要能根据自然的潮起潮落，找到自己的发大财的运，欲速则不达 
				"
,刘小巧玲珑,大盘下午有一波跳水风险 ,,,"
				大盘下午有一波跳水风险 
				"
,凤歌三千,3600点到不了，清仓。 ,,,"
				打新资金不肯回流。 
				"
,,明日9股申资解冻近2万亿大盘将迎来主升当浪直至美联储加息会的16日！ ,,,"
				趋势往上！ 
				"
,牡丹仙子8143,真的好想你： ,,,"
				： 
				"
,投鼠忌器,日线，周线，月线，季线都被均线压制，和6124跌下来一样 ,,,"
				每次反弹之后还是继续大幅度下跌,6124跌倒1664，这个幅度的下跌经历了一年的时间,自己可以看看k线图，对比07年-09年琢磨下 
				"
,雨墨看盘lmt850,12.3周三精准解析（双星变盘后续） ,,,"
				【12月2日周三的陈雨墨复盘总结】：,周三盘面观察，市场主力左手利用银行保险券商股金三胖有明显发力上攻护盘迹象，右手死命砸盘中小盘股，寻找低吸机会。,截止下午收盘时两市A股涨停家数40多家，跌停家数仅有20多家，这完全不像是股灾那种成百上千只股票往跌停板砸盘的情况。目前主力的操盘手，大家应该回忆一下今年6月前那几波的新股申购过程中有见过吧？主力在新股申购最后一天左手大权重护盘，右手砸中小盘股来低吸，然后新股申购完毕，主力资金解冻，就开始狂拉中小盘股获利，大蓝筹股歇菜，引诱散户在二八快速轮动中追涨杀跌，而主力同时获得新股申购的利润和股票抄底的利润。,周二收盘点评中雨墨再次准确预测周三大盘会有概率反弹，但绝没想到主力高明的用二八轮动来打压中小盘股洗盘吸筹。因此从今天开始，在每天2次点评中雨墨会增加分析创业板指的支撑位与压力位。以后注意，在非二八转换的极端行情，上证指数仍然是关系到两市80%个股的走势。而在注册制尚未推出前，只要创业板指数跌破当天的支撑位，那么中小盘题材股的走势就会受到拖累（特别是像今天这种二八转换的情况）。,但既然已经知道主力的意图，那么也就大概可以预测到明天中小盘股会有一波绝地反弹的行情，而大盘权重股估计会放慢上攻速度或者震荡护盘。金三胖如果再以今天的速度上攻，那么慢牛又要变成快牛了，明显不符合国家调控股市节奏为慢牛的意愿。,还有一点异像很重要：尾盘3大股指期货（中证500，上证50，,），继续上攻，全天最高点收盘，而且成交量放出了天量（上一次天量在股灾底部主力抄底时出现），今日涨幅远大于对应现货指数，是否预示着主力和雨墨一样看多明天会有爆涨行情呢？虽然股指期货被限制笔数，但是操作股指期货的代表的是先知先觉的主力资金。上一次出现天量后，隔天均有不错的反弹行情。,【12月3日周四的陈雨墨操盘要点】：,今天周三是最后1只新股申购，明天周四有周一的1只新股申购资金解冻回流，而后天周五有周二的那8只新股申购资金解冻回流。因此，明后天只要上证指数和创业板指数不失守支撑位，雨墨认为本周四周五将有望迎来打新资金的回流助推股市反弹。,从技术分析而言，今天早盘杀得最猛的是创业板指数，而创业板并没有跌破11月30日的低点2507点，反而有意图做W底右脚的技术形态出现，而W底成立的前提是要反弹突破颈线位2700点，一但创业板指有效突破2700点，后续的反弹力度会更大，甚至创出反弹新高。再次重申：雨墨预计中小创题材股的回调或许已告一段落，明后天有望迎来反弹行情。,无论我们预测是看涨还是看跌，做好资金分批进出与仓位控管可帮助投资者规避风险和获取较大收益。可参考以下支撑压力操盘法进行操作：,1、周四观盘重点是上证指数只要不失守3519点，重点观察创业板，创业板只要不跌破2580点，那么个股反弹行情将会异常精彩！但雨墨从上周二开始就提前提示创业板个股风险较大需逢高减仓或者换股，而主板和中小板个股相对创业板更为安全。,2、周四如果上证指数或者创业板指数继续下探，需观察支撑位附近是否有出现强反弹后，再抄底。雨墨认为本周如果要抄底，在支撑位附近买入是较为安全的区域，但由于短线进入空头行情，抄底是有风险的，新手最好别一次性押满全仓，也是要分为1-2天分批建仓逢低买入，T+0滚动交易规避风险。记得抄底的思路只能是短线，快进快出。,3、反弹逃命方法：由于打新资金回流市场，雨墨预计周四或周五会产生一波反弹，要仔细观察压力位3550点-3585点是否可以有效站上，如果反弹到不了这2个压力位附近遇到抛压回落，需逢高减仓。冲高后再次跌破颈线位3519点，则可视为技术反弹行情结束，只是对跌破M头颈线3519点的反弹回抽动作，也被称为”反弹逃命波“。谨慎的短线投资者，这一个波段需要好好把握逢高减仓，遇见压力位附近冲高回落时先把仓位降低到3-5成以内，切勿满仓持股。卖错了，大不了再买回来。一但可以有效站上3585点上方则短线就会转强，该压力位就会转变为支撑位，可在支撑位不破之前持续待涨。,【仓位管控建议----根据上证指数点位】：,明天大盘趋势：支撑位不跌破的前提下，谨慎看多，重仓者可借反弹高抛适当减仓。,空头行情：有效跌破3519点，3成底仓或新手持币观望,震荡行情：3519点-3585点之间震荡，3-5成仓位或新手持币观望,多头行情：有效站稳3585点，可5-7成仓位做短线，快进快出，一但跌破该点位需止损。,===========================================================,A、上证指数的支撑位与压力位：（关联大权重股走势）,第1支撑位：3519点。（该点位一但跌破，还有再次探底做W底的右脚）,第2支撑位：3420点。,第1压力位：3550点。,第2压力位：3585点±10点。（约为20日均线，上方压力较大，如缩量上攻容易回调）,B、创业板指的支撑位与压力位：（关联中小盘股走势）,第1支撑位：2580点。（该点位一但跌破，还会继续探底，甚至2507点不保）,第2支撑位：2507点。,第1压力位：2655点。,第2压力位：2700点。（有效突破，短线反弹延续）,二、陈雨墨支撑位与压力位操盘法教学：,1、趋势决定一切：股市没有先知，我们只做趋势的跟随者。无论陈雨墨和其他人如何预测大盘是涨是跌都无用，均属于盘前预测，而实际盘中千变万化，盘中请严格按照支撑位和压力位进行及时操作。,2、操盘纪律：目前A股大盘的走势与80%的个股是联动的，想在股市中提升赚钱几率，保住本金，需遵守操盘纪律。即为大盘有效跌破支撑位就卖掉手中个股的原则。除非你有信心你的个股是可以做到逆市走强的。支撑位与压力位运用得当，还可帮助股民做到成功率较高的高抛低吸，中大户还可运用其在股指期货上做支撑位买多，压力位卖空等等，自行领悟其奥妙所在。,【支撑位操作提示】：,（1）如果上证指数并无有效跌破第一支撑位，无论盘中如何起起落落，均可安心持股待涨。,（2）如果上证指数确认有效跌破以上支撑位后，可分批减仓，降低风险。第二支撑位可作为短线投资者的清仓线。,（3）如果上证指数下跌到支撑位附近并产生快速反弹，可在确认站稳支撑位后适当低吸做T+0。如果买入个股后发现大盘再度有效跌破支撑位，记得及时止损，代表主力诱多需调整策略。,（4）支撑位有效跌破才需减仓，有效跌破指的是跌破后无法在30分钟内收复（也可在放量下跌时即可提前确认），而非一跌破就减仓。有时候主力会瞬间假跌破支撑位，30分钟内立马快速反弹拉回支撑位之上，这样的假摔现象不算有效跌破，仍可安心持股。但需结合杀跌速度的快慢来制定等待时间。极端快速放量杀跌行情可不等30分钟，只等5-10分钟即可，这就是盘感！,【压力位操作提示】：,（1）如果上证指数反弹到以上压力位附近时，无法有效突破并快速下跌，可适当高抛，避免回调风险，千万别在接近压力位无放量有效突破时追高买股。,（2）如果上证指数盘中站上以上任何一个压力位，压力位将转变为支撑位，只要不跌破，尚可持股待涨，有效跌破需做减仓。,（3）通常第二压力位较大概率会成为当天盘中的最高点，如果上攻到第二压力位附近有效站上可继续持股，无法站上并下跌可适当减仓。,（4）压力位的预测点位，有时候也存在偏差，即为大盘尚未到达压力位就下跌回落。因此如果大盘走势非常弱或者成交量低迷，也可不需达到压力位即可提前适当高抛。 
				"
,狼图腾Vip,短线继续谨慎！ ,,,"
				指数大涨，貌似喜，背后则无尽悲！暴跌之后权重股集体狂飙，这样的走势在今年救市的初期领教过！,三根擎天柱彻底激活地产板块，在朦胧利好的传闻下,也再次引导银行,券商大幅走高,致使上证指数大涨80点,攀上3536点,成交量并未大幅放大仅成交3692亿,显示观望气氛依然较浓厚，同时也显示套牢盘也基本上锁仓等待！,虽然金融、地产等权重蓝筹轮番上攻，操作上还是建议维持谨慎的态度，目前上证的上涨暂时还只能定性为跌破通道下轨的反抽，并没有强势收回20日线！反弹临近强压力位。,短线大盘继续向上压力为3544-3555、3583;空间已经有限，控制仓位等待新的低吸时间点到来。股票操作方面：这个区域操作难度较大，不做也罢，耐心等待调整全部结束！下跌是跟踪个股重新布局好时机。 
				"
,论股谈笑间,12月大盘预测 ,,,"
				12月上证指数大概率在3300~3550区间震荡，极限位置上至3650，下至3150，走势先扬中抑后扬，总体看跌，第二周开始风险面将剧增，2850以来累积的获利可能轻轻松松回吐干净，牢记本月钱袋比股票重要！即便如此，本月仍将有至少3波行情，把握准确必然盈利！ 
				"
,嘟嘟嘟1234,2015年11月23日 ,,,"
				从6月12日到目前跌幅超过55%以上的股票，002029，600063，000859，目前走势无法判断，选择超跌股预防风险！ 
				"
,hyt433陈雨墨看股,周四大盘精准预测！ ,,,"
				【12月2日周三的陈雨墨复盘总结】：,周三盘面观察，市场主力左手利用银行保险券商股金三胖有明显发力上攻护盘迹象，右手死命砸盘中小盘股，寻找低吸机会。,截止下午收盘时两市A股涨停家数40多家，跌停家数仅有20多家，这完全不像是股灾那种成百上千只股票往跌停板砸盘的情况。目前主力的操盘手，大家应该回忆一下今年6月前那几波的新股申购过程中有见过吧？主力在新股申购最后一天左手大权重护盘，右手砸中小盘股来低吸，然后新股申购完毕，主力资金解冻，就开始狂拉中小盘股获利，大蓝筹股歇菜，引诱散户在二八快速轮动中追涨杀跌，而主力同时获得新股申购的利润和股票抄底的利润。,周二收盘点评中雨墨再次准确预测周三大盘会有概率反弹，但绝没想到主力高明的用二八轮动来打压中小盘股洗盘吸筹。因此从今天开始，在每天2次点评中雨墨会增加分析创业板指的支撑位与压力位。以后注意，在非二八转换的极端行情，上证指数仍然是关系到两市80%个股的走势。而在注册制尚未推出前，只要创业板指数跌破当天的支撑位，那么中小盘题材股的走势就会受到拖累（特别是像今天这种二八转换的情况）。,但既然已经知道主力的意图，那么也就大概可以预测到明天中小盘股会有一波绝地反弹的行情，而大盘权重股估计会放慢上攻速度或者震荡护盘。金三胖如果再以今天的速度上攻，那么慢牛又要变成快牛了，明显不符合国家调控股市节奏为慢牛的意愿。,还有一点异像很重要：尾盘3大股指期货（中证500，上证50，,），继续上攻，全天最高点收盘，而且成交量放出了天量（上一次天量在股灾底部主力抄底时出现），今日涨幅远大于对应现货指数，是否预示着主力和雨墨一样看多明天会有爆涨行情呢？虽然股指期货被限制笔数，但是操作股指期货的代表的是先知先觉的主力资金。上一次出现天量后，隔天均有不错的反弹行情。,【12月3日周四的陈雨墨操盘要点】：,今天周三是最后1只新股申购，明天周四有周一的1只新股申购资金解冻回流，而后天周五有周二的那8只新股申购资金解冻回流。因此，明后天只要上证指数和创业板指数不失守支撑位，雨墨认为本周四周五将有望迎来打新资金的回流助推股市反弹。,从技术分析而言，今天早盘杀得最猛的是创业板指数，而创业板并没有跌破11月30日的低点2507点，反而有意图做W底右脚的技术形态出现，而W底成立的前提是要反弹突破颈线位2700点，一但创业板指有效突破2700点，后续的反弹力度会更大，甚至创出反弹新高。再次重申：雨墨预计中小创题材股的回调或许已告一段落，明后天有望迎来反弹行情。,无论我们预测是看涨还是看跌，做好资金分批进出与仓位控管可帮助投资者规避风险和获取较大收益。可参考以下支撑压力操盘法进行操作：,1、周四观盘重点是上证指数只要不失守3519点，重点观察创业板，创业板只要不跌破2580点，那么个股反弹行情将会异常精彩！但雨墨从上周二开始就提前提示创业板个股风险较大需逢高减仓或者换股，而主板和中小板个股相对创业板更为安全。,2、周四如果上证指数或者创业板指数继续下探，需观察支撑位附近是否有出现强反弹后，再抄底。雨墨认为本周如果要抄底，在支撑位附近买入是较为安全的区域，但由于短线进入空头行情，抄底是有风险的，新手最好别一次性押满全仓，也是要分为1-2天分批建仓逢低买入，T+0滚动交易规避风险。记得抄底的思路只能是短线，快进快出。,3、反弹逃命方法：由于打新资金回流市场，雨墨预计周四或周五会产生一波反弹，要仔细观察压力位3550点-3585点是否可以有效站上，如果反弹到不了这2个压力位附近遇到抛压回落，需逢高减仓。冲高后再次跌破颈线位3519点，则可视为技术反弹行情结束，只是对跌破M头颈线3519点的反弹回抽动作，也被称为”反弹逃命波“。谨慎的短线投资者，这一个波段需要好好把握逢高减仓，遇见压力位附近冲高回落时先把仓位降低到3-5成以内，切勿满仓持股。卖错了，大不了再买回来。一但可以有效站上3585点上方则短线就会转强，该压力位就会转变为支撑位，可在支撑位不破之前持续待涨。,【仓位管控建议----根据上证指数点位】：,明天大盘趋势：支撑位不跌破的前提下，谨慎看多，重仓者可借反弹高抛适当减仓。,空头行情：有效跌破3519点，3成底仓或新手持币观望,震荡行情：3519点-3585点之间震荡，3-5成仓位或新手持币观望,多头行情：有效站稳3585点，可5-7成仓位做短线，快进快出，一但跌破该点位需止损。,===========================================================,A、上证指数的支撑位与压力位：（关联大权重股走势）,第1支撑位：3519点。（该点位一但跌破，还有再次探底做W底的右脚）,第2支撑位：3420点。,第1压力位：3550点。,第2压力位：3585点±10点。（约为20日均线，上方压力较大，如缩量上攻容易回调）,B、创业板指的支撑位与压力位：（关联中小盘股走势）,第1支撑位：2580点。（该点位一但跌破，还会继续探底，甚至2507点不保）,第2支撑位：2507点。,第1压力位：2655点。,第2压力位：2700点。（有效突破，短线反弹延续）,---------------------------------------,二、陈雨墨支撑位与压力位操盘法教学：,---------------------------------------,1、趋势决定一切：股市没有先知，我们只做趋势的跟随者。无论陈雨墨和其他人如何预测大盘是涨是跌都无用，均属于盘前预测，而实际盘中千变万化，盘中请严格按照支撑位和压力位进行及时操作。,2、操盘纪律：目前A股大盘的走势与80%的个股是联动的，想在股市中提升赚钱几率，保住本金，需遵守操盘纪律。即为大盘有效跌破支撑位就卖掉手中个股的原则。除非你有信心你的个股是可以做到逆市走强的。支撑位与压力位运用得当，还可帮助股民做到成功率较高的高抛低吸，中大户还可运用其在股指期货上做支撑位买多，压力位卖空等等，自行领悟其奥妙所在。,【支撑位操作提示】：,（1）如果上证指数并无有效跌破第一支撑位，无论盘中如何起起落落，均可安心持股待涨。,（2）如果上证指数确认有效跌破以上支撑位后，可分批减仓，降低风险。第二支撑位可作为短线投资者的清仓线。,（3）如果上证指数下跌到支撑位附近并产生快速反弹，可在确认站稳支撑位后适当低吸做T+0。如果买入个股后发现大盘再度有效跌破支撑位，记得及时止损，代表主力诱多需调整策略。,（4）支撑位有效跌破才需减仓，有效跌破指的是跌破后无法在30分钟内收复（也可在放量下跌时即可提前确认），而非一跌破就减仓。有时候主力会瞬间假跌破支撑位，30分钟内立马快速反弹拉回支撑位之上，这样的假摔现象不算有效跌破，仍可安心持股。但需结合杀跌速度的快慢来制定等待时间。极端快速放量杀跌行情可不等30分钟，只等5-10分钟即可，这就是盘感！,【压力位操作提示】：,（1）如果上证指数反弹到以上压力位附近时，无法有效突破并快速下跌，可适当高抛，避免回调风险，千万别在接近压力位无放量有效突破时追高买股。,（2）如果上证指数盘中站上以上任何一个压力位，压力位将转变为支撑位，只要不跌破，尚可持股待涨，有效跌破需做减仓。,（3）通常第二压力位较大概率会成为当天盘中的最高点，如果上攻到第二压力位附近有效站上可继续持股，无法站上并下跌可适当减仓。,（4）压力位的预测点位，有时候也存在偏差，即为大盘尚未到达压力位就下跌回落。因此如果大盘走势非常弱或者成交量低迷，也可不需达到压力位即可提前适当高抛。 
				"
,满血无情刀,横眉冷眼自奋蹄 ,,,"
				忘记昨日的成功，深藏昨日的痛苦，迎接今天的现实，幻想明天的太阳！ 
				"
,拨云见雾ye,快买，明天大新解冻，不给大新解冻找底的机会！ ,,,"
				快买，明天大新解冻，不给大新解冻找底的机会！ 
				"
,天上掉下来大馍馍,大盘走好！新高可期！ ,,,"
				大盘走好！新高可期！ 
				"
,靓颖唱得好听,要炒5元以下的低价股了 ,,,"
				是不是呀，主力 
				"
,童话天尊,童话天尊·今日早盘：低开高走决定后势方向！ ,,,"
				昨日大盘终于反弹了，而且长阳拉起，虽然没有收复周五的巨阴，但也差不多涨了一半回去，银行股的上涨不会有太大的持续性，因为市场资金明显不足以支持大盘股的持续上涨，周三银行股的上涨，是牺牲了中小创为代价涨的，市场虽然反弹，但并非普涨，这暴露市场依然是场内存量资金博弈的缺陷。,今天大盘应该小幅低开：,第一支撑位：3500  第二支撑位：3480  ,第一压力位：3550  第二压力位：3580。,消息面上：,李克强：抓紧制定遏制与防治艾滋病“十三五”行动计划。,国务院发布关于进一步推进农垦改革发展的意见。,中美本周将举行打击网络犯罪高级别联合对话。,10家冶铜骨干企业决定减产，建议国家收储。,高盛：预计中国今年年内再度降息降准.,国务院同意建立由发改委牵头的促进投资部际联席会议制度。,详解：,3400点的意义：历史上的3400点，让每一个人记忆犹新：从2009年四万亿投资所带来的小牛市顶部3478，到去年“猪都能飞”的券商行情的顶部。再从本轮股灾管理层的救市底3373点到下半场清理配资盘引发的突破性缺口，3400点仍是当前股指探底回升的防线。从图（1）中可以清晰地看到，经过了近5个月横盘整后，4000点上方的套牢盘逐渐被消耗，取而代之的是，3600点与4000点再构筑当前的套牢盘压力区。所以，未来将继续构建以3400点轴心的箱体，承载着4000点上方套牢修复工作。若想加快步伐，最好的选择则选择大蓝筹股，加剧股指的波动用于减轻时间的压力。,RMB正式入篮：11月30日晚，IMF宣布RMB正式成为加入SDR，其权重仅次美元与欧元，作为世界第三大货币。但是，新的货币篮子将于明年10月1日正式生效，这意味着外资配置RMB资产在未来一年的时间会不断增加，进而推动外资流入资本市场。目前这只是一个导火索，就如去年初的沪港通一样。在总理3月21日午间正式推动沪港通交易一样，以蓝筹股为代表高溢价股一时间成为资金炒作的对象，但是市场真正从底部启动却开始于四个月后。其间股指各种波动，最终只有一个结果：2150点上方筹码消耗完毕。从时间轴上看，在RMB入篮后，下一步沪伦通，A股指数纳入MSCI国际指数将会进一步推动A股国际化，从而形成真正的RMB国际化。1973年日元正式加入SDR，在12年的时间里日经指数从5000点到达最高38597点。用一个时尚的词形容当前的心境，也只能“呵呵”了！,平均股价：股灾带来的片体鳞伤，更是带来的各种妖股齐飞。有私募大佬的暗战，有“王的女人”齐飞，有“亲生儿子”的疯狂，这在这平均股价上反应的更为明显。如图（3）所示，股灾的上半场，平均股价完美演绎了双头形态，更加表明在无股灾背景下6-30日超跌反弹的技术底。自10月开启的反弹中，平均股价目前已经抵达双头的“头部”，这也是市场自然抛盘的最典型反应。若以股价作为判断点，其颈线刚好位于8-24跳空的缺口处，即18元附近。大盘S点出现后，平均股价虽然勉强此处盘整，但增量资金持续出逃的信号已经告诫投资者，阶段性暴炒股的结束，也这自10月反弹以来热点的切换。只是，在没有找到新的炒作点时，外资亲睐的蓝筹股则成为拉升对象。,横向样本统计：90%，让我们见证了数据的太多奇迹。股灾前，中线上攻90%以上的博傻，让我们见证了去年10月后蓝筹疯狂，见证了今年4月后泡沫加速破裂的痕迹；短线上攻90%的疯狂，让我们见识了疯狂后千股跌停的预警；短线超跌90%的凄凉，让我们看清了股灾中的两个市场底。如今，在断头铡刀出现后，中、短线上攻全线回落，在市场机遇减少的同时，投资者则应把眼光放在中线上攻上。须知，中线上攻是市场持续走强的动力，在其“受伤”好不容易进入“拉升”后，未来则期待该数据能够维持在30%上方，用来维持当前箱体的震荡，而不至于再度引发的超跌盘出现（不妨参考2014年2000盘整的数据）。,：回购部分 A 股已耗资逾1.6亿元；嘉澳环保首发获通过 ,持股近7%；,拟近44亿投资智能制造和数字医院；,：取消提名习银平为独董候选人等。,技术上，昨天大盘放量拉升，显示大盘还有新高，但大盘量能还是不够，这个量能回抽的极限就是在3620点附近，随后大盘还有回调，除非今天大盘再拉中阳，否则，无法改变大盘盘整的格局。考虑到明天申购新股的资金大量解冻，这批资金应该有部分入场，市场如果有这个预期，今天上午大盘盘整以后，下午应该拉升，也就是今天大盘应该先阴后阳的局面。,操作上，建议大家提高警惕，针对自己的手中个股，可以适当抢反弹，但整体要保持谨慎，控制好仓位。不恋战！,童话操作小结：权重股昨天大幅上涨，如果前天和昨天都没有买的，后面不宜去追高，权重个股持续性待考验，在目前资金面失衡的情况下，持续上涨的概率不大，昨天小盘概念股出现大幅调整，不出意外，今天以创业板为代表的小盘概念股应该会出现反弹 ，应该有资金关注。由于目前大盘还处于大跌之后的反弹，还没有收复上周五的失地，目前主要操作策略还是，控制仓位，高抛低吸为主，目前保持5成左右仓位即可，下跌有资金补仓，上涨手中有股票。今天如果低位补仓，今天冲高可以适当高抛补仓的部分，等回落可以继续接回，目前继续以短线思维，波段操作为主，中期风险不大！,声明：文中涉及个股仅作交流与参考，不作为投资依据。,（在自童话天尊博客） ,
				"
,中庶子,>>上证指数盘中即时分析 ,,,"
				http://guba.eastmoney.com/news,szzs,191687486.html,中庶子 影响力 吧龄 2.3年 ,发表于 2015-08-03 15:05:55,短线或将迎来200点反弹空间。 ,中庶子 影响力 吧龄 2.3年 ,发表于 2015-08-04 16:04:36,今日沪指大盘一举收复5日线压制，报收近光头光脚中阳K线，美中不足的就,是成交量仍然没有充分放大，至少可理解为场内存量资金为主，明日股指将,面临7月30日高点3844-3859一线压制，预计冲高回落的可能性较大。股指若,能走出较大反弹空间，前题是必须化解由6月15日高点形成的下降趋与压力，,本周先扬后抑走势可能性较大。 ,更多即时分析随时更新，敬请关注。,昨日正如上述分析中指出，股指冲高至3785一线便转入震荡下行趋势，虽在,午后探出盘中新低后出现了一波上攻，但在成交量未能给予有效配合的情况,下，尾盘继续出现快速震荡回落态势，且在回落过程中成交量略有放大，呈,价跌量增之势。,K线观察，沪指尾盘5分钟级别走出了头尖顶形态，如今日早盘股指不能在,3686一线止跌，那么很有可能向3610一线寻求支持。,更多即时分析随时更新，敬请关注。 
				"
,大道至简085,粉饰的太平 ,,,"
				粉饰的太平 
				"
,股海野战军,跳水开始，直接炸到3000 ,,,"
				, 
				"
,时事财经评论,在上证天天忽悠暴跌的都是赔钱货 ,,,"
				在上证天天忽悠暴跌的都是赔钱货 
				"
,清倌判股,八年，在此第一个分析帖，开贴赎罪！！ ,,,"
				八年了，在此第一帖，很久没有发过帖 ，只是无聊的逛逛，特在此开个个股解答帖，以赎我这几年只看不发言论的罪过。,我所说的仅仅是个人观点，也并非是我说什么就一定对。我坚信这里会收获到真正的朋友，人心换人心！ 
				"
,期待投行,广发证券乖乖这样下去了得？主力天量打压天量吸筹何等强势！这可是成第一投行妖股之节奏？ ,,,"
				,乖乖这样下去了得？主力天量打压天量吸筹何等强势！这可是成第一投行妖股 
				"
,黑嘴antai,短期拐点反序 ,,,"
				30日到达白色线，封杀了继续下跌的空间。3或4日反序成高点。,预计4或7日中途性低点，14或15日高点。暂定冬至附近出低点。 
				"
,吉米米4530,2点解冻资金.我们大户室都说买601939、601398 ,,,"
				牛市预期，惜售明显，2点解冻资金，井盘在即（目标4500点 
				"
,龍龖龘達畗,龍龖龘達畗26年大盘庖丁解牛之后市走势图解 ,,,"
				2015-09-25 ,龘龘龘19:03:14,续此前的“大盘艳舞”图，,天将大势图示剖解。,这个图，我推导得很严谨。,将来的A股，逃不脱的命运。,牛熊，亦尽在不言中……,兮露,没看明白呢,龘龘龘,更正：（2680一线）上下趋势轨形成的交点,这个走势图,三个部分：,26年的上行轨，,8年的下行轨。,宝萱 23:07:22,怎么看到26年的,龘龘龘,两轨交织的合力，形成中部的杠杆牛箱体,上行轨的起点是1990年,距今26年,8年的下行轨起于2008年,距今8年,26年的世界经济尽收眼底,长看，股市还是反映经济周期的,8年的下行轨道，的确包含了国内命途多舛的股市,贪腐不除，民将奈何？,宝萱23:11:36,后市呢,龘龘龘23:11:49,后市，在于杠杆牛的消化后的走势,杠杆牛的获利盘，说实在的，还没有全部出尽。,看杠杆牛熊线的中轨，3280一线,在5000点疯狂出货后，,两个月跌破中轨3280，进入空头轨道,最可怕的还在于：,26年跌宕起伏……,真正的走势在这个模型里看似并不起眼的“后市类箱体走势”里。,因为股市所需要的真实的量价关系使然——,这个类箱体走势,中轨2750,下轨1870，规矩880点。,（没有画出上轨，就是想到腐败……）,说到将来的走势，硬是要画上轨的话,就在2750点上方加880，大约为3630点。,加一个倾角形成的上行区间，大约125点.,也就是说，,接下来的6-7年，,A股的技术高点不会越过3800点（有伟哥——杠杆牛或者其它超级刺激除外）,这个模型真实率，就让时间来检验吧……！,龍龖龘達畗,公元2105年9月26日 ,于塞维利亚，西班牙 ,
				"
,钱钱厚厚17737,今天收盘红盘，我就把自己的JJ切了炒菜 ,,,"
				说到做到 
				"
,时事财经评论,买入5元以下低价股 卖出高价股卖出 ,,,"
				买入5元以下低价股 卖出高价股,买入5元以下低价股 卖出高价股,买入5元以下低价股 卖出高价股,买入5元以下低价股 卖出高价股,买入5元以下低价股 卖出高价股,买入5元以下低价股 卖出高价股,买入5元以下低价股 卖出高价股 
				"
,步步虚空,今日走势分析（12月2日） ,,,"
				今日两地大盘分化，上证在银行、证券、保险等权重带领下大涨，创业板下跌。,1、上证今日向上变盘，重新站上5日、30日均线，收盘受制于5周均线压力，60分钟线危机暂时解除。短期指数仍有冲高动力。,2、创业板今日向下变盘，大幅下跌后拉起，形成双针探底之势，收盘虽仍在强支撑2580点上方，但已跌穿30日均线支撑，后市难料。大家短期应关注60分钟线能否形成小双底形态并升破2699颈线位。在创业板反弹过程中，建议大家逢高继续减仓或清仓。同时，创业板如再次放量跌穿2580强支撑，建议坚决离场。,3、明日上证支撑位3520/3498，阻力位3565/3615。创业板支撑位2580，阻力位2644/2700。,以上为个人观点，仅供大家参考，不作为投资依据。 
				"
,红遍大上海,红遍大上海：在2015年 12月画了一个圈 ,,,"
				,亲，我真的没有你们想像的那么重要，你们就放过我吧， 别天天望长脖子等我新文章，我有我的女儿，我有我的生活方式， 不可能天天陪伴你。当你实在困惑时， 对后市纠结时与我文字偶遇就行了。别猜我是什么人了。,多年来，我扮演了一个坏人，是国家需要的那种坏人：“当A股疯狂上涨时，我泼冷水；当A股人气低迷时，我出来提震大家的信心。”,对，咱们中国需要一条慢牛，A股需要在健康，理性中前行。 是的 ！我的文章观点通常与你们称为“十大机构”“十大名博”观点相反。我就是我！ 我的文章不是写给普通散户看的， 这一点你什么时候都要牢记， 别需要我的老朋友常常提醒你。,我的情况依然没有好转，我得了心脏病，我在丽江开始我的新生活。我需要在疗养，感谢大家一年多来给予我极大帮助。发自肺腑了，说了就是给任何人看了，无所谓。就让魔爪伸去把我带走吧，我不想有奇迹，生命按部就班结束就好。,或许以前我说过你们不爱听的话，对不起了， 我宁愿用生命点亮别人， 用微弱文字摧使机构朋友看到自己的弱点，失败之处。偶尔，爬起来写几行文字，不愿意就此浪费生命。 ,
				"
